<?xml version="1.0" encoding="UTF-8"?>
<COLLADA xmlns="http://www.collada.org/2005/11/COLLADASchema" version="1.4.1">
 <asset>
  <contributor>
   <authoring_tool>SceneKit Collada Exporter v1.0</authoring_tool>
  </contributor>
  <created>2017-07-18T05:17:32Z</created>
  <modified>2017-07-18T05:17:32Z</modified>
  <unit meter="0.025400"/>
  <up_axis>Z_UP</up_axis>
 </asset>
 <library_materials>
  <material id="ID4" name="material_4">
   <instance_effect url="#effect_ID4"/>
  </material>
  <material id="ID18" name="material_8">
   <instance_effect url="#effect_ID18"/>
  </material>
  <material id="ID26" name="material_9">
   <instance_effect url="#effect_ID26"/>
  </material>
  <material id="ID61" name="material_2">
   <instance_effect url="#effect_ID61"/>
  </material>
  <material id="ID69" name="material_5">
   <instance_effect url="#effect_ID69"/>
  </material>
  <material id="ID77" name="material_1">
   <instance_effect url="#effect_ID77"/>
  </material>
  <material id="ID85" name="material_6">
   <instance_effect url="#effect_ID85"/>
  </material>
  <material id="ID111" name="material_7">
   <instance_effect url="#effect_ID111"/>
  </material>
 </library_materials>
 <library_effects>
  <effect id="effect_ID4">
   <profile_COMMON>
    <technique sid="common">
     <lambert>
      <diffuse>
       <color>0.501961 0.501961 0.501961 1</color>
      </diffuse>
      <transparency>
       <float>1</float>
      </transparency>
      <index_of_refraction>
       <float>1</float>
      </index_of_refraction>
     </lambert>
    </technique>
   </profile_COMMON>
   <extra>
    <technique profile="SceneKit">
     <litPerPixel>1</litPerPixel>
     <ambient_diffuse_lock>0</ambient_diffuse_lock>
    </technique>
   </extra>
  </effect>
  <effect id="effect_ID18">
   <profile_COMMON>
    <technique sid="common">
     <lambert>
      <diffuse>
       <color>0.0980392 0.0980392 0.0980392 1</color>
      </diffuse>
      <transparency>
       <float>1</float>
      </transparency>
      <index_of_refraction>
       <float>1</float>
      </index_of_refraction>
     </lambert>
    </technique>
   </profile_COMMON>
   <extra>
    <technique profile="SceneKit">
     <litPerPixel>1</litPerPixel>
     <ambient_diffuse_lock>0</ambient_diffuse_lock>
    </technique>
   </extra>
  </effect>
  <effect id="effect_ID26">
   <profile_COMMON>
    <technique sid="common">
     <lambert>
      <diffuse>
       <color>0.298039 0.298039 0.298039 1</color>
      </diffuse>
      <transparency>
       <float>1</float>
      </transparency>
      <index_of_refraction>
       <float>1</float>
      </index_of_refraction>
     </lambert>
    </technique>
   </profile_COMMON>
   <extra>
    <technique profile="SceneKit">
     <litPerPixel>1</litPerPixel>
     <ambient_diffuse_lock>0</ambient_diffuse_lock>
    </technique>
   </extra>
  </effect>
  <effect id="effect_ID61">
   <profile_COMMON>
    <technique sid="common">
     <lambert>
      <diffuse>
       <color>1 0 0 1</color>
      </diffuse>
      <transparency>
       <float>1</float>
      </transparency>
      <index_of_refraction>
       <float>1</float>
      </index_of_refraction>
     </lambert>
    </technique>
   </profile_COMMON>
   <extra>
    <technique profile="SceneKit">
     <litPerPixel>1</litPerPixel>
     <ambient_diffuse_lock>0</ambient_diffuse_lock>
    </technique>
   </extra>
  </effect>
  <effect id="effect_ID69">
   <profile_COMMON>
    <technique sid="common">
     <lambert>
      <diffuse>
       <color>0.501961 0.25098 0 1</color>
      </diffuse>
      <transparency>
       <float>1</float>
      </transparency>
      <index_of_refraction>
       <float>1</float>
      </index_of_refraction>
     </lambert>
    </technique>
   </profile_COMMON>
   <extra>
    <technique profile="SceneKit">
     <litPerPixel>1</litPerPixel>
     <ambient_diffuse_lock>0</ambient_diffuse_lock>
    </technique>
   </extra>
  </effect>
  <effect id="effect_ID77">
   <profile_COMMON>
    <technique sid="common">
     <lambert>
      <diffuse>
       <color>1 1 0.4 1</color>
      </diffuse>
      <transparency>
       <float>1</float>
      </transparency>
      <index_of_refraction>
       <float>1</float>
      </index_of_refraction>
     </lambert>
    </technique>
   </profile_COMMON>
   <extra>
    <technique profile="SceneKit">
     <litPerPixel>1</litPerPixel>
     <ambient_diffuse_lock>0</ambient_diffuse_lock>
    </technique>
   </extra>
  </effect>
  <effect id="effect_ID85">
   <profile_COMMON>
    <technique sid="common">
     <lambert>
      <diffuse>
       <color>0.501961 0.501961 0 1</color>
      </diffuse>
      <transparency>
       <float>1</float>
      </transparency>
      <index_of_refraction>
       <float>1</float>
      </index_of_refraction>
     </lambert>
    </technique>
   </profile_COMMON>
   <extra>
    <technique profile="SceneKit">
     <litPerPixel>1</litPerPixel>
     <ambient_diffuse_lock>0</ambient_diffuse_lock>
    </technique>
   </extra>
  </effect>
  <effect id="effect_ID111">
   <profile_COMMON>
    <technique sid="common">
     <lambert>
      <diffuse>
       <color>0 0.501961 0 1</color>
      </diffuse>
      <transparency>
       <float>1</float>
      </transparency>
      <index_of_refraction>
       <float>1</float>
      </index_of_refraction>
     </lambert>
    </technique>
   </profile_COMMON>
   <extra>
    <technique profile="SceneKit">
     <litPerPixel>1</litPerPixel>
     <ambient_diffuse_lock>0</ambient_diffuse_lock>
    </technique>
   </extra>
  </effect>
 </library_effects>
 <library_geometries>
  <geometry id="geometry1">
   <mesh>
    <source id="ID6">
     <float_array id="ID2-array" count="18">-0.255087 -1.52941 0.911101 -1.35633 1.19829 0.911101 -1.59462 0.784448 0.911101 1.28354 1.20139 0.911101 0.238479 -1.52941 0.911101 1.5479 0.744742 0.911101 </float_array>
     <technique_common>
      <accessor source="#ID2-array" count="6" stride="3">
       <param name="X" type="float"/>
       <param name="Y" type="float"/>
       <param name="Z" type="float"/>
      </accessor>
     </technique_common>
    </source>
    <source id="ID7">
     <float_array id="ID3-array" count="18">0 0 1 0 0 1 0 0 1 0 0 1 0 0 1 0 0 1 </float_array>
     <technique_common>
      <accessor source="#ID3-array" count="6" stride="3">
       <param name="X" type="float"/>
       <param name="Y" type="float"/>
       <param name="Z" type="float"/>
      </accessor>
     </technique_common>
    </source>
    <vertices id="ID6-vertices">
     <input semantic="POSITION" source="#ID6"/>
     <input semantic="NORMAL" source="#ID7"/>
    </vertices>
    <triangles count="4" material="geometryElement4">
     <input semantic="VERTEX" offset="0" source="#ID6-vertices"/>
     <input semantic="NORMAL" offset="0" source="#ID7"/>
     <p>0 1 2 1 0 3 3 0 4 3 4 5 </p>
    </triangles>
   </mesh>
  </geometry>
  <geometry id="geometry5">
   <mesh>
    <source id="ID12">
     <float_array id="ID8-array" count="306">-0.340902 0.115883 0.590551 -0.333393 -0.937773 0.590551 -0.341252 -1.01377 0.590551 -0.328823 0.0404395 0.590551 -0.306132 -0.866398 0.590551 -0.29763 -0.0293067 0.590551 -0.261326 -0.804511 0.590551 -0.249448 -0.088603 0.590551 -0.20203 -0.756329 0.590551 -0.187561 -0.133408 0.590551 -0.132284 -0.725136 0.590551 -0.116186 -0.160669 0.590551 -0.0568409 -0.713057 0.590551 -0.0401876 -0.168528 0.590551 0.0191577 -0.720916 0.590551 0.0352554 -0.15645 0.590551 0.0905326 -0.748177 0.590551 0.105002 -0.125256 0.590551 0.15242 -0.792982 0.590551 0.164298 -0.0770746 0.590551 0.200602 -0.852278 0.590551 0.209103 -0.0151874 0.590551 0.231795 -0.922025 0.590551 0.236364 0.0561875 0.590551 0.243874 -0.997468 0.590551 0.244223 0.132186 0.590551 -1.35633 1.19829 0.590551 -1.27603 0.751926 0.590551 -1.28388 0.675927 0.590551 -1.24876 0.8233 0.590551 -1.20396 0.885188 0.590551 -1.14466 0.93337 0.590551 -1.07492 0.964563 0.590551 -0.999474 0.976641 0.590551 1.28354 1.20139 0.590551 -0.923475 0.968782 0.590551 -0.8521 0.941521 0.590551 -0.790213 0.896716 0.590551 -0.742031 0.83742 0.590551 -0.710838 0.767674 0.590551 -0.698759 0.692231 0.590551 0.79461 0.969329 0.590551 -0.20168 0.373325 0.590551 -0.260977 0.325143 0.590551 -0.305782 0.263256 0.590551 -0.333043 0.191881 0.590551 -0.131934 0.404518 0.590551 -0.0564912 0.416597 0.590551 0.0195074 0.408738 0.590551 0.735314 0.921147 0.590551 0.0908823 0.381477 0.590551 0.15277 0.336672 0.590551 0.200951 0.277375 0.590551 0.690508 0.85926 0.590551 0.232145 0.207629 0.590551 0.663247 0.787885 0.590551 0.655388 0.711887 0.590551 0.864356 1.00052 0.590551 0.939799 1.0126 0.590551 1.0158 1.00474 0.590551 1.08717 0.977481 0.590551 1.14906 0.932676 0.590551 1.19724 0.873379 0.590551 1.22843 0.803633 0.590551 1.24051 0.72819 0.590551 -1.59462 0.784448 0.590551 -1.24061 0.530738 0.590551 -0.255087 -1.52941 0.590551 -1.27181 0.600484 0.590551 -1.19243 0.471442 0.590551 -1.13054 0.426636 0.590551 -1.05917 0.399375 0.590551 -0.98317 0.391516 0.590551 -0.907727 0.403595 0.590551 -0.837981 0.434788 0.590551 -0.778685 0.48297 0.590551 -0.733879 0.544857 0.590551 -0.706618 0.616232 0.590551 -0.329173 -1.08921 0.590551 -0.29798 -1.15896 0.590551 -0.249798 -1.21826 0.590551 -0.187911 -1.26306 0.590551 0.238479 -1.52941 0.590551 -0.116536 -1.29032 0.590551 -0.0405373 -1.29818 0.590551 0.0349057 -1.2861 0.590551 0.104652 -1.25491 0.590551 0.163948 -1.20673 0.590551 0.208753 -1.14484 0.590551 0.236015 -1.07347 0.590551 1.5479 0.744742 0.590551 1.10129 0.470748 0.590551 1.03155 0.439555 0.590551 0.956103 0.427476 0.590551 0.880104 0.435335 0.590551 0.808729 0.462596 0.590551 0.746842 0.507401 0.590551 0.69866 0.566697 0.590551 0.667467 0.636444 0.590551 1.16059 0.51893 0.590551 1.20539 0.580817 0.590551 1.23265 0.652192 0.590551 </float_array>
     <technique_common>
      <accessor source="#ID8-array" count="102" stride="3">
       <param name="X" type="float"/>
       <param name="Y" type="float"/>
       <param name="Z" type="float"/>
      </accessor>
     </technique_common>
    </source>
    <source id="ID13">
     <float_array id="ID9-array" count="306">0 0 -1 0 0 -1 0 0 -1 0 0 -1 0 0 -1 0 0 -1 0 0 -1 0 0 -1 0 0 -1 0 0 -1 0 0 -1 0 0 -1 0 0 -1 0 0 -1 0 0 -1 0 0 -1 0 0 -1 0 0 -1 0 0 -1 0 0 -1 0 0 -1 0 0 -1 0 0 -1 0 0 -1 0 0 -1 0 0 -1 0 0 -1 0 0 -1 0 0 -1 0 0 -1 0 0 -1 0 0 -1 0 0 -1 0 0 -1 0 0 -1 0 0 -1 0 0 -1 0 0 -1 0 0 -1 0 0 -1 0 0 -1 0 0 -1 0 0 -1 0 0 -1 0 0 -1 0 0 -1 0 0 -1 0 0 -1 0 0 -1 0 0 -1 0 0 -1 0 0 -1 0 0 -1 0 0 -1 0 0 -1 0 0 -1 0 0 -1 0 0 -1 0 0 -1 0 0 -1 0 0 -1 0 0 -1 0 0 -1 0 0 -1 0 0 -1 0 0 -1 0 0 -1 0 0 -1 0 0 -1 0 0 -1 0 0 -1 0 0 -1 0 0 -1 0 0 -1 0 0 -1 0 0 -1 0 0 -1 0 0 -1 0 0 -1 0 0 -1 0 0 -1 0 0 -1 0 0 -1 0 0 -1 0 0 -1 0 0 -1 0 0 -1 0 0 -1 0 0 -1 0 0 -1 0 0 -1 0 0 -1 0 0 -1 0 0 -1 0 0 -1 0 0 -1 0 0 -1 0 0 -1 0 0 -1 0 0 -1 0 0 -1 0 0 -1 </float_array>
     <technique_common>
      <accessor source="#ID9-array" count="102" stride="3">
       <param name="X" type="float"/>
       <param name="Y" type="float"/>
       <param name="Z" type="float"/>
      </accessor>
     </technique_common>
    </source>
    <vertices id="ID12-vertices">
     <input semantic="POSITION" source="#ID12"/>
     <input semantic="NORMAL" source="#ID13"/>
    </vertices>
    <triangles count="108" material="geometryElement10">
     <input semantic="VERTEX" offset="0" source="#ID12-vertices"/>
     <input semantic="NORMAL" offset="0" source="#ID13"/>
     <p>0 1 2 1 0 3 1 3 4 4 3 5 4 5 6 6 5 7 6 7 8 8 7 9 8 9 10 10 9 11 10 11 12 12 11 13 12 13 14 14 13 15 14 15 16 16 15 17 16 17 18 18 17 19 18 19 20 20 19 21 20 21 22 22 21 23 22 23 24 24 23 25 26 27 28 27 26 29 29 26 30 30 26 31 31 26 32 32 26 33 33 26 34 33 34 35 35 34 36 36 34 37 37 34 38 38 34 39 39 34 40 40 34 41 40 41 42 40 42 43 40 43 44 40 44 45 40 45 0 40 0 2 42 41 46 46 41 47 47 41 48 48 41 49 48 49 50 50 49 51 51 49 52 52 49 53 52 53 54 54 53 25 25 53 55 25 55 56 41 34 57 57 34 58 58 34 59 59 34 60 60 34 61 61 34 62 62 34 63 63 34 64 65 66 67 66 65 68 68 65 28 28 65 26 67 66 69 67 69 70 67 70 71 67 71 72 67 72 73 67 73 74 67 74 75 67 75 76 67 76 77 67 77 40 67 40 78 78 40 2 67 78 79 67 79 80 67 80 81 67 81 82 82 81 83 82 83 84 82 84 85 82 85 86 82 86 87 82 87 88 82 88 89 82 89 24 82 24 90 90 24 91 91 24 92 92 24 25 92 25 93 93 25 94 94 25 95 95 25 96 96 25 97 97 25 98 98 25 56 90 91 99 90 99 100 90 100 101 90 101 64 90 64 34 </p>
    </triangles>
   </mesh>
  </geometry>
  <geometry id="geometry11">
   <mesh>
    <source id="ID20">
     <float_array id="ID14-array" count="12">-1.59462 0.784448 0.911101 -0.255087 -1.52941 0.590551 -0.255087 -1.52941 0.911101 -1.59462 0.784448 0.590551 </float_array>
     <technique_common>
      <accessor source="#ID14-array" count="4" stride="3">
       <param name="X" type="float"/>
       <param name="Y" type="float"/>
       <param name="Z" type="float"/>
      </accessor>
     </technique_common>
    </source>
    <source id="ID21">
     <float_array id="ID15-array" count="12">-0.865438 -0.501016 0 -0.865438 -0.501016 0 -0.865438 -0.501016 0 -0.865438 -0.501016 0 </float_array>
     <technique_common>
      <accessor source="#ID15-array" count="4" stride="3">
       <param name="X" type="float"/>
       <param name="Y" type="float"/>
       <param name="Z" type="float"/>
      </accessor>
     </technique_common>
    </source>
    <vertices id="ID20-vertices">
     <input semantic="POSITION" source="#ID20"/>
     <input semantic="NORMAL" source="#ID21"/>
    </vertices>
    <triangles count="2" material="geometryElement16">
     <input semantic="VERTEX" offset="0" source="#ID20-vertices"/>
     <input semantic="NORMAL" offset="0" source="#ID21"/>
     <p>0 1 2 1 0 3 </p>
    </triangles>
   </mesh>
  </geometry>
  <geometry id="geometry17">
   <mesh>
    <source id="ID28">
     <float_array id="ID19-array" count="12">0.238479 -1.52941 0.911101 -0.255087 -1.52941 0.590551 0.238479 -1.52941 0.590551 -0.255087 -1.52941 0.911101 </float_array>
     <technique_common>
      <accessor source="#ID19-array" count="4" stride="3">
       <param name="X" type="float"/>
       <param name="Y" type="float"/>
       <param name="Z" type="float"/>
      </accessor>
     </technique_common>
    </source>
    <source id="ID29">
     <float_array id="ID22-array" count="12">0 -1 0 0 -1 0 0 -1 0 0 -1 0 </float_array>
     <technique_common>
      <accessor source="#ID22-array" count="4" stride="3">
       <param name="X" type="float"/>
       <param name="Y" type="float"/>
       <param name="Z" type="float"/>
      </accessor>
     </technique_common>
    </source>
    <vertices id="ID28-vertices">
     <input semantic="POSITION" source="#ID28"/>
     <input semantic="NORMAL" source="#ID29"/>
    </vertices>
    <triangles count="2" material="geometryElement23">
     <input semantic="VERTEX" offset="0" source="#ID28-vertices"/>
     <input semantic="NORMAL" offset="0" source="#ID29"/>
     <p>0 1 2 1 0 3 </p>
    </triangles>
   </mesh>
  </geometry>
  <geometry id="geometry24">
   <mesh>
    <source id="ID34">
     <float_array id="ID25-array" count="12">1.5479 0.744742 0.590551 0.238479 -1.52941 0.911101 0.238479 -1.52941 0.590551 1.5479 0.744742 0.911101 </float_array>
     <technique_common>
      <accessor source="#ID25-array" count="4" stride="3">
       <param name="X" type="float"/>
       <param name="Y" type="float"/>
       <param name="Z" type="float"/>
      </accessor>
     </technique_common>
    </source>
    <source id="ID35">
     <float_array id="ID27-array" count="12">0.866612 -0.498983 -0 0.866612 -0.498983 -0 0.866612 -0.498983 -0 0.866612 -0.498983 -0 </float_array>
     <technique_common>
      <accessor source="#ID27-array" count="4" stride="3">
       <param name="X" type="float"/>
       <param name="Y" type="float"/>
       <param name="Z" type="float"/>
      </accessor>
     </technique_common>
    </source>
    <vertices id="ID34-vertices">
     <input semantic="POSITION" source="#ID34"/>
     <input semantic="NORMAL" source="#ID35"/>
    </vertices>
    <triangles count="2" material="geometryElement28">
     <input semantic="VERTEX" offset="0" source="#ID34-vertices"/>
     <input semantic="NORMAL" offset="0" source="#ID35"/>
     <p>0 1 2 1 0 3 </p>
    </triangles>
   </mesh>
  </geometry>
  <geometry id="geometry29">
   <mesh>
    <source id="ID40">
     <float_array id="ID30-array" count="12">1.28354 1.20139 0.590551 1.5479 0.744742 0.911101 1.5479 0.744742 0.590551 1.28354 1.20139 0.911101 </float_array>
     <technique_common>
      <accessor source="#ID30-array" count="4" stride="3">
       <param name="X" type="float"/>
       <param name="Y" type="float"/>
       <param name="Z" type="float"/>
      </accessor>
     </technique_common>
    </source>
    <source id="ID41">
     <float_array id="ID31-array" count="12">0.865438 0.501016 -0 0.865438 0.501016 -0 0.865438 0.501016 -0 0.865438 0.501016 -0 </float_array>
     <technique_common>
      <accessor source="#ID31-array" count="4" stride="3">
       <param name="X" type="float"/>
       <param name="Y" type="float"/>
       <param name="Z" type="float"/>
      </accessor>
     </technique_common>
    </source>
    <vertices id="ID40-vertices">
     <input semantic="POSITION" source="#ID40"/>
     <input semantic="NORMAL" source="#ID41"/>
    </vertices>
    <triangles count="2" material="geometryElement32">
     <input semantic="VERTEX" offset="0" source="#ID40-vertices"/>
     <input semantic="NORMAL" offset="0" source="#ID41"/>
     <p>0 1 2 1 0 3 </p>
    </triangles>
   </mesh>
  </geometry>
  <geometry id="geometry33">
   <mesh>
    <source id="ID46">
     <float_array id="ID36-array" count="12">-1.35633 1.19829 0.911101 1.28354 1.20139 0.590551 -1.35633 1.19829 0.590551 1.28354 1.20139 0.911101 </float_array>
     <technique_common>
      <accessor source="#ID36-array" count="4" stride="3">
       <param name="X" type="float"/>
       <param name="Y" type="float"/>
       <param name="Z" type="float"/>
      </accessor>
     </technique_common>
    </source>
    <source id="ID47">
     <float_array id="ID37-array" count="12">-0.0011737 0.999999 -0 -0.0011737 0.999999 -0 -0.0011737 0.999999 -0 -0.0011737 0.999999 -0 </float_array>
     <technique_common>
      <accessor source="#ID37-array" count="4" stride="3">
       <param name="X" type="float"/>
       <param name="Y" type="float"/>
       <param name="Z" type="float"/>
      </accessor>
     </technique_common>
    </source>
    <vertices id="ID46-vertices">
     <input semantic="POSITION" source="#ID46"/>
     <input semantic="NORMAL" source="#ID47"/>
    </vertices>
    <triangles count="2" material="geometryElement38">
     <input semantic="VERTEX" offset="0" source="#ID46-vertices"/>
     <input semantic="NORMAL" offset="0" source="#ID47"/>
     <p>0 1 2 1 0 3 </p>
    </triangles>
   </mesh>
  </geometry>
  <geometry id="geometry39">
   <mesh>
    <source id="ID52">
     <float_array id="ID42-array" count="12">-1.35633 1.19829 0.911101 -1.59462 0.784448 0.590551 -1.59462 0.784448 0.911101 -1.35633 1.19829 0.590551 </float_array>
     <technique_common>
      <accessor source="#ID42-array" count="4" stride="3">
       <param name="X" type="float"/>
       <param name="Y" type="float"/>
       <param name="Z" type="float"/>
      </accessor>
     </technique_common>
    </source>
    <source id="ID53">
     <float_array id="ID43-array" count="12">-0.866612 0.498983 0 -0.866612 0.498983 0 -0.866612 0.498983 0 -0.866612 0.498983 0 </float_array>
     <technique_common>
      <accessor source="#ID43-array" count="4" stride="3">
       <param name="X" type="float"/>
       <param name="Y" type="float"/>
       <param name="Z" type="float"/>
      </accessor>
     </technique_common>
    </source>
    <vertices id="ID52-vertices">
     <input semantic="POSITION" source="#ID52"/>
     <input semantic="NORMAL" source="#ID53"/>
    </vertices>
    <triangles count="2" material="geometryElement44">
     <input semantic="VERTEX" offset="0" source="#ID52-vertices"/>
     <input semantic="NORMAL" offset="0" source="#ID53"/>
     <p>0 1 2 1 0 3 </p>
    </triangles>
   </mesh>
  </geometry>
  <geometry id="geometry45">
   <mesh>
    <source id="ID58">
     <float_array id="ID48-array" count="144">-0.328823 0.0404395 0.722952 -0.333043 0.191881 0.722952 -0.340902 0.115883 0.722952 -0.305782 0.263256 0.722952 -0.29763 -0.0293067 0.722952 -0.260977 0.325143 0.722952 -0.249448 -0.088603 0.722952 -0.20168 0.373325 0.722952 -0.187561 -0.133408 0.722952 -0.131934 0.404518 0.722952 -0.116186 -0.160669 0.722952 -0.0564912 0.416597 0.722952 -0.0401876 -0.168528 0.722952 0.0195074 0.408738 0.722952 0.0352554 -0.15645 0.722952 0.0908823 0.381477 0.722952 0.105002 -0.125256 0.722952 0.15277 0.336672 0.722952 0.164298 -0.0770746 0.722952 0.200951 0.277375 0.722952 0.209103 -0.0151874 0.722952 0.232145 0.207629 0.722952 0.236364 0.0561875 0.722952 0.244223 0.132186 0.722952 0.244223 0.132186 0.722952 0.236364 0.0561875 0.722952 0.232145 0.207629 0.722952 0.209103 -0.0151874 0.722952 0.200951 0.277375 0.722952 0.164298 -0.0770746 0.722952 0.15277 0.336672 0.722952 0.105002 -0.125256 0.722952 0.0908823 0.381477 0.722952 0.0352554 -0.15645 0.722952 0.0195074 0.408738 0.722952 -0.0401876 -0.168528 0.722952 -0.0564912 0.416597 0.722952 -0.116186 -0.160669 0.722952 -0.131934 0.404518 0.722952 -0.187561 -0.133408 0.722952 -0.20168 0.373325 0.722952 -0.249448 -0.088603 0.722952 -0.260977 0.325143 0.722952 -0.29763 -0.0293067 0.722952 -0.305782 0.263256 0.722952 -0.328823 0.0404395 0.722952 -0.333043 0.191881 0.722952 -0.340902 0.115883 0.722952 </float_array>
     <technique_common>
      <accessor source="#ID48-array" count="48" stride="3">
       <param name="X" type="float"/>
       <param name="Y" type="float"/>
       <param name="Z" type="float"/>
      </accessor>
     </technique_common>
    </source>
    <source id="ID59">
     <float_array id="ID49-array" count="144">-0 0 1 -0 0 1 -0 0 1 -0 0 1 -0 0 1 -0 0 1 -0 0 1 -0 0 1 -0 0 1 -0 0 1 -0 0 1 -0 0 1 -0 0 1 -0 0 1 -0 0 1 -0 0 1 -0 0 1 -0 0 1 -0 0 1 -0 0 1 -0 0 1 -0 0 1 -0 0 1 -0 0 1 0 -0 -1 0 -0 -1 0 -0 -1 0 -0 -1 0 -0 -1 0 -0 -1 0 -0 -1 0 -0 -1 0 -0 -1 0 -0 -1 0 -0 -1 0 -0 -1 0 -0 -1 0 -0 -1 0 -0 -1 0 -0 -1 0 -0 -1 0 -0 -1 0 -0 -1 0 -0 -1 0 -0 -1 0 -0 -1 0 -0 -1 0 -0 -1 </float_array>
     <technique_common>
      <accessor source="#ID49-array" count="48" stride="3">
       <param name="X" type="float"/>
       <param name="Y" type="float"/>
       <param name="Z" type="float"/>
      </accessor>
     </technique_common>
    </source>
    <vertices id="ID58-vertices">
     <input semantic="POSITION" source="#ID58"/>
     <input semantic="NORMAL" source="#ID59"/>
    </vertices>
    <triangles count="22" material="geometryElement50">
     <input semantic="VERTEX" offset="0" source="#ID58-vertices"/>
     <input semantic="NORMAL" offset="0" source="#ID59"/>
     <p>0 1 2 1 0 3 3 0 4 3 4 5 5 4 6 5 6 7 7 6 8 7 8 9 9 8 10 9 10 11 11 10 12 11 12 13 13 12 14 13 14 15 15 14 16 15 16 17 17 16 18 17 18 19 19 18 20 19 20 21 21 20 22 21 22 23 </p>
    </triangles>
    <triangles count="22" material="geometryElement51">
     <input semantic="VERTEX" offset="0" source="#ID58-vertices"/>
     <input semantic="NORMAL" offset="0" source="#ID59"/>
     <p>24 25 26 25 27 26 26 27 28 27 29 28 28 29 30 29 31 30 30 31 32 31 33 32 32 33 34 33 35 34 34 35 36 35 37 36 36 37 38 37 39 38 38 39 40 39 41 40 40 41 42 41 43 42 42 43 44 43 45 44 44 45 46 47 46 45 </p>
    </triangles>
   </mesh>
  </geometry>
  <geometry id="geometry52">
   <mesh>
    <source id="ID66">
     <float_array id="ID54-array" count="288">0.200951 0.277375 0.590551 0.232145 0.207629 0.722952 0.232145 0.207629 0.590551 0.200951 0.277375 0.722952 0.15277 0.336672 0.590551 0.15277 0.336672 0.722952 0.244223 0.132186 0.722952 0.244223 0.132186 0.590551 0.0908823 0.381477 0.722952 0.0908823 0.381477 0.590551 0.236364 0.0561875 0.722952 0.236364 0.0561875 0.590551 0.0195074 0.408738 0.722952 0.0195074 0.408738 0.590551 0.209103 -0.0151874 0.722952 0.209103 -0.0151874 0.590551 -0.0564912 0.416597 0.722952 -0.0564912 0.416597 0.590551 0.164298 -0.0770746 0.722952 0.164298 -0.0770746 0.590551 -0.131934 0.404518 0.722952 -0.131934 0.404518 0.590551 0.105002 -0.125256 0.590551 0.105002 -0.125256 0.722952 -0.20168 0.373325 0.722952 -0.20168 0.373325 0.590551 0.0352554 -0.15645 0.590551 0.0352554 -0.15645 0.722952 -0.260977 0.325143 0.722952 -0.260977 0.325143 0.590551 -0.0401876 -0.168528 0.590551 -0.0401876 -0.168528 0.722952 -0.305782 0.263256 0.590551 -0.305782 0.263256 0.722952 -0.116186 -0.160669 0.590551 -0.116186 -0.160669 0.722952 -0.333043 0.191881 0.590551 -0.333043 0.191881 0.722952 -0.187561 -0.133408 0.590551 -0.187561 -0.133408 0.722952 -0.340902 0.115883 0.590551 -0.340902 0.115883 0.722952 -0.249448 -0.088603 0.590551 -0.249448 -0.088603 0.722952 -0.328823 0.0404395 0.590551 -0.328823 0.0404395 0.722952 -0.29763 -0.0293067 0.722952 -0.29763 -0.0293067 0.590551 0.200951 0.277375 0.722952 0.200951 0.277375 0.590551 0.232145 0.207629 0.722952 0.232145 0.207629 0.590551 0.15277 0.336672 0.722952 0.15277 0.336672 0.590551 0.244223 0.132186 0.722952 0.244223 0.132186 0.590551 0.0908823 0.381477 0.722952 0.0908823 0.381477 0.590551 0.236364 0.0561875 0.722952 0.236364 0.0561875 0.590551 0.0195074 0.408738 0.722952 0.0195074 0.408738 0.590551 0.209103 -0.0151874 0.722952 0.209103 -0.0151874 0.590551 -0.0564912 0.416597 0.722952 -0.0564912 0.416597 0.590551 0.164298 -0.0770746 0.722952 0.164298 -0.0770746 0.590551 -0.131934 0.404518 0.722952 -0.131934 0.404518 0.590551 0.105002 -0.125256 0.722952 0.105002 -0.125256 0.590551 -0.20168 0.373325 0.722952 -0.20168 0.373325 0.590551 0.0352554 -0.15645 0.722952 0.0352554 -0.15645 0.590551 -0.260977 0.325143 0.722952 -0.260977 0.325143 0.590551 -0.0401876 -0.168528 0.722952 -0.0401876 -0.168528 0.590551 -0.305782 0.263256 0.590551 -0.305782 0.263256 0.722952 -0.116186 -0.160669 0.722952 -0.116186 -0.160669 0.590551 -0.333043 0.191881 0.590551 -0.333043 0.191881 0.722952 -0.187561 -0.133408 0.722952 -0.187561 -0.133408 0.590551 -0.340902 0.115883 0.590551 -0.340902 0.115883 0.722952 -0.249448 -0.088603 0.722952 -0.249448 -0.088603 0.590551 -0.328823 0.0404395 0.590551 -0.328823 0.0404395 0.722952 -0.29763 -0.0293067 0.590551 -0.29763 -0.0293067 0.722952 </float_array>
     <technique_common>
      <accessor source="#ID54-array" count="96" stride="3">
       <param name="X" type="float"/>
       <param name="Y" type="float"/>
       <param name="Z" type="float"/>
      </accessor>
     </technique_common>
    </source>
    <source id="ID67">
     <float_array id="ID55-array" count="288">0.851763 0.523927 -0 0.958342 0.285622 -0 0.958342 0.285622 -0 0.851763 0.523927 -0 0.687138 0.726527 -0 0.687138 0.726527 -0 0.999612 0.0278526 0 0.999612 0.0278526 0 0.475685 0.879616 -0 0.475685 0.879616 -0 0.97276 -0.231815 -0 0.97276 -0.231815 -0 0.231815 0.97276 0 0.231815 0.97276 0 0.879616 -0.475685 -0 0.879616 -0.475685 -0 -0.0278526 0.999612 0 -0.0278526 0.999612 0 0.726527 -0.687138 -0 0.726527 -0.687138 -0 -0.285622 0.958342 0 -0.285622 0.958342 0 0.523927 -0.851763 -0 0.523927 -0.851763 -0 -0.523927 0.851763 0 -0.523927 0.851763 0 0.285622 -0.958342 -0 0.285622 -0.958342 -0 -0.726527 0.687138 0 -0.726527 0.687138 0 0.0278526 -0.999612 -0 0.0278526 -0.999612 -0 -0.879616 0.475685 0 -0.879616 0.475685 0 -0.231815 -0.97276 -0 -0.231815 -0.97276 -0 -0.97276 0.231815 0 -0.97276 0.231815 0 -0.475685 -0.879616 -0 -0.475685 -0.879616 -0 -0.999612 -0.0278526 0 -0.999612 -0.0278526 0 -0.687138 -0.726527 -0 -0.687138 -0.726527 -0 -0.958342 -0.285622 -0 -0.958342 -0.285622 -0 -0.851763 -0.523927 -0 -0.851763 -0.523927 -0 -0.851763 -0.523927 0 -0.851763 -0.523927 0 -0.958342 -0.285622 0 -0.958342 -0.285622 0 -0.687138 -0.726527 0 -0.687138 -0.726527 0 -0.999612 -0.0278526 -0 -0.999612 -0.0278526 -0 -0.475685 -0.879616 0 -0.475685 -0.879616 0 -0.97276 0.231815 0 -0.97276 0.231815 0 -0.231815 -0.97276 -0 -0.231815 -0.97276 -0 -0.879616 0.475685 0 -0.879616 0.475685 0 0.0278526 -0.999612 -0 0.0278526 -0.999612 -0 -0.726527 0.687138 0 -0.726527 0.687138 0 0.285622 -0.958342 -0 0.285622 -0.958342 -0 -0.523927 0.851763 0 -0.523927 0.851763 0 0.523927 -0.851763 -0 0.523927 -0.851763 -0 -0.285622 0.958342 0 -0.285622 0.958342 0 0.726527 -0.687138 -0 0.726527 -0.687138 -0 -0.0278526 0.999612 0 -0.0278526 0.999612 0 0.879616 -0.475685 -0 0.879616 -0.475685 -0 0.231815 0.97276 0 0.231815 0.97276 0 0.97276 -0.231815 -0 0.97276 -0.231815 -0 0.475685 0.879616 0 0.475685 0.879616 0 0.999612 0.0278526 -0 0.999612 0.0278526 -0 0.687138 0.726527 0 0.687138 0.726527 0 0.958342 0.285622 0 0.958342 0.285622 0 0.851763 0.523927 0 0.851763 0.523927 0 </float_array>
     <technique_common>
      <accessor source="#ID55-array" count="96" stride="3">
       <param name="X" type="float"/>
       <param name="Y" type="float"/>
       <param name="Z" type="float"/>
      </accessor>
     </technique_common>
    </source>
    <vertices id="ID66-vertices">
     <input semantic="POSITION" source="#ID66"/>
     <input semantic="NORMAL" source="#ID67"/>
    </vertices>
    <triangles count="48" material="geometryElement56">
     <input semantic="VERTEX" offset="0" source="#ID66-vertices"/>
     <input semantic="NORMAL" offset="0" source="#ID67"/>
     <p>0 1 2 1 0 3 4 3 0 3 4 5 2 6 7 6 2 1 8 4 9 4 8 5 7 10 11 10 7 6 12 9 13 9 12 8 11 14 15 14 11 10 16 13 17 13 16 12 15 18 19 18 15 14 20 17 21 17 20 16 18 22 19 22 18 23 24 21 25 21 24 20 23 26 22 26 23 27 28 25 29 25 28 24 27 30 26 30 27 31 28 32 33 32 28 29 31 34 30 34 31 35 33 36 37 36 33 32 35 38 34 38 35 39 37 40 41 40 37 36 39 42 38 42 39 43 41 44 45 44 41 40 46 42 43 42 46 47 45 47 46 47 45 44 </p>
    </triangles>
    <triangles count="48" material="geometryElement57">
     <input semantic="VERTEX" offset="0" source="#ID66-vertices"/>
     <input semantic="NORMAL" offset="0" source="#ID67"/>
     <p>48 49 50 51 50 49 52 53 48 49 48 53 50 51 54 55 54 51 52 56 53 57 53 56 54 55 58 59 58 55 56 60 57 61 57 60 58 59 62 63 62 59 60 64 61 65 61 64 62 63 66 67 66 63 64 68 65 69 65 68 70 66 71 67 71 66 68 72 69 73 69 72 74 70 75 71 75 70 72 76 73 77 73 76 78 74 79 75 79 74 77 76 80 81 80 76 82 78 83 79 83 78 80 81 84 85 84 81 86 82 87 83 87 82 84 85 88 89 88 85 90 86 91 87 91 86 88 89 92 93 92 89 94 95 91 90 91 95 92 93 94 95 94 93 </p>
    </triangles>
   </mesh>
  </geometry>
  <geometry id="geometry58">
   <mesh>
    <source id="ID74">
     <float_array id="ID60-array" count="144">0.667467 0.636444 0.722952 0.663247 0.787885 0.722952 0.655388 0.711887 0.722952 0.690508 0.85926 0.722952 0.69866 0.566697 0.722952 0.735314 0.921147 0.722952 0.746842 0.507401 0.722952 0.79461 0.969329 0.722952 0.808729 0.462596 0.722952 0.864356 1.00052 0.722952 0.880104 0.435335 0.722952 0.939799 1.0126 0.722952 0.956103 0.427476 0.722952 1.0158 1.00474 0.722952 1.03155 0.439555 0.722952 1.08717 0.977481 0.722952 1.10129 0.470748 0.722952 1.14906 0.932676 0.722952 1.16059 0.51893 0.722952 1.19724 0.873379 0.722952 1.20539 0.580817 0.722952 1.22843 0.803633 0.722952 1.23265 0.652192 0.722952 1.24051 0.72819 0.722952 1.24051 0.72819 0.722952 1.23265 0.652192 0.722952 1.22843 0.803633 0.722952 1.20539 0.580817 0.722952 1.19724 0.873379 0.722952 1.16059 0.51893 0.722952 1.14906 0.932676 0.722952 1.10129 0.470748 0.722952 1.08717 0.977481 0.722952 1.03155 0.439555 0.722952 1.0158 1.00474 0.722952 0.956103 0.427476 0.722952 0.939799 1.0126 0.722952 0.880104 0.435335 0.722952 0.864356 1.00052 0.722952 0.808729 0.462596 0.722952 0.79461 0.969329 0.722952 0.746842 0.507401 0.722952 0.735314 0.921147 0.722952 0.69866 0.566697 0.722952 0.690508 0.85926 0.722952 0.667467 0.636444 0.722952 0.663247 0.787885 0.722952 0.655388 0.711887 0.722952 </float_array>
     <technique_common>
      <accessor source="#ID60-array" count="48" stride="3">
       <param name="X" type="float"/>
       <param name="Y" type="float"/>
       <param name="Z" type="float"/>
      </accessor>
     </technique_common>
    </source>
    <source id="ID75">
     <float_array id="ID62-array" count="144">0 0 1 0 0 1 0 0 1 0 0 1 0 0 1 0 0 1 0 0 1 0 0 1 0 0 1 0 0 1 0 0 1 0 0 1 0 0 1 0 0 1 0 0 1 0 0 1 0 0 1 0 0 1 0 0 1 0 0 1 0 0 1 0 0 1 0 0 1 0 0 1 -0 -0 -1 -0 -0 -1 -0 -0 -1 -0 -0 -1 -0 -0 -1 -0 -0 -1 -0 -0 -1 -0 -0 -1 -0 -0 -1 -0 -0 -1 -0 -0 -1 -0 -0 -1 -0 -0 -1 -0 -0 -1 -0 -0 -1 -0 -0 -1 -0 -0 -1 -0 -0 -1 -0 -0 -1 -0 -0 -1 -0 -0 -1 -0 -0 -1 -0 -0 -1 -0 -0 -1 </float_array>
     <technique_common>
      <accessor source="#ID62-array" count="48" stride="3">
       <param name="X" type="float"/>
       <param name="Y" type="float"/>
       <param name="Z" type="float"/>
      </accessor>
     </technique_common>
    </source>
    <vertices id="ID74-vertices">
     <input semantic="POSITION" source="#ID74"/>
     <input semantic="NORMAL" source="#ID75"/>
    </vertices>
    <triangles count="22" material="geometryElement63">
     <input semantic="VERTEX" offset="0" source="#ID74-vertices"/>
     <input semantic="NORMAL" offset="0" source="#ID75"/>
     <p>0 1 2 1 0 3 3 0 4 3 4 5 5 4 6 5 6 7 7 6 8 7 8 9 9 8 10 9 10 11 11 10 12 11 12 13 13 12 14 13 14 15 15 14 16 15 16 17 17 16 18 17 18 19 19 18 20 19 20 21 21 20 22 21 22 23 </p>
    </triangles>
    <triangles count="22" material="geometryElement64">
     <input semantic="VERTEX" offset="0" source="#ID74-vertices"/>
     <input semantic="NORMAL" offset="0" source="#ID75"/>
     <p>24 25 26 25 27 26 26 27 28 27 29 28 28 29 30 29 31 30 30 31 32 31 33 32 32 33 34 33 35 34 34 35 36 35 37 36 36 37 38 37 39 38 38 39 40 39 41 40 40 41 42 41 43 42 42 43 44 43 45 44 44 45 46 47 46 45 </p>
    </triangles>
   </mesh>
  </geometry>
  <geometry id="geometry65">
   <mesh>
    <source id="ID82">
     <float_array id="ID68-array" count="288">1.22843 0.803633 0.590551 1.19724 0.873379 0.722952 1.22843 0.803633 0.722952 1.19724 0.873379 0.590551 1.14906 0.932676 0.590551 1.14906 0.932676 0.722952 1.24051 0.72819 0.722952 1.24051 0.72819 0.590551 1.08717 0.977481 0.722952 1.08717 0.977481 0.590551 1.23265 0.652192 0.722952 1.23265 0.652192 0.590551 1.0158 1.00474 0.722952 1.0158 1.00474 0.590551 1.20539 0.580817 0.722952 1.20539 0.580817 0.590551 0.939799 1.0126 0.722952 0.939799 1.0126 0.590551 1.16059 0.51893 0.722952 1.16059 0.51893 0.590551 0.864356 1.00052 0.722952 0.864356 1.00052 0.590551 1.10129 0.470748 0.590551 1.10129 0.470748 0.722952 0.79461 0.969329 0.722952 0.79461 0.969329 0.590551 1.03155 0.439555 0.590551 1.03155 0.439555 0.722952 0.735314 0.921147 0.722952 0.735314 0.921147 0.590551 0.956103 0.427476 0.590551 0.956103 0.427476 0.722952 0.690508 0.85926 0.590551 0.690508 0.85926 0.722952 0.880104 0.435335 0.590551 0.880104 0.435335 0.722952 0.663247 0.787885 0.590551 0.663247 0.787885 0.722952 0.808729 0.462596 0.590551 0.808729 0.462596 0.722952 0.655388 0.711887 0.590551 0.655388 0.711887 0.722952 0.746842 0.507401 0.590551 0.746842 0.507401 0.722952 0.667467 0.636444 0.590551 0.667467 0.636444 0.722952 0.69866 0.566697 0.722952 0.69866 0.566697 0.590551 1.19724 0.873379 0.590551 1.22843 0.803633 0.590551 1.19724 0.873379 0.722952 1.22843 0.803633 0.722952 1.14906 0.932676 0.722952 1.14906 0.932676 0.590551 1.24051 0.72819 0.722952 1.24051 0.72819 0.590551 1.08717 0.977481 0.722952 1.08717 0.977481 0.590551 1.23265 0.652192 0.722952 1.23265 0.652192 0.590551 1.0158 1.00474 0.722952 1.0158 1.00474 0.590551 1.20539 0.580817 0.722952 1.20539 0.580817 0.590551 0.939799 1.0126 0.722952 0.939799 1.0126 0.590551 1.16059 0.51893 0.722952 1.16059 0.51893 0.590551 0.864356 1.00052 0.722952 0.864356 1.00052 0.590551 1.10129 0.470748 0.722952 1.10129 0.470748 0.590551 0.79461 0.969329 0.722952 0.79461 0.969329 0.590551 1.03155 0.439555 0.722952 1.03155 0.439555 0.590551 0.735314 0.921147 0.722952 0.735314 0.921147 0.590551 0.956103 0.427476 0.722952 0.956103 0.427476 0.590551 0.690508 0.85926 0.590551 0.690508 0.85926 0.722952 0.880104 0.435335 0.722952 0.880104 0.435335 0.590551 0.663247 0.787885 0.590551 0.663247 0.787885 0.722952 0.808729 0.462596 0.722952 0.808729 0.462596 0.590551 0.655388 0.711887 0.590551 0.655388 0.711887 0.722952 0.746842 0.507401 0.722952 0.746842 0.507401 0.590551 0.667467 0.636444 0.590551 0.667467 0.636444 0.722952 0.69866 0.566697 0.590551 0.69866 0.566697 0.722952 </float_array>
     <technique_common>
      <accessor source="#ID68-array" count="96" stride="3">
       <param name="X" type="float"/>
       <param name="Y" type="float"/>
       <param name="Z" type="float"/>
      </accessor>
     </technique_common>
    </source>
    <source id="ID83">
     <float_array id="ID70-array" count="288">0.958342 0.285622 0 0.851763 0.523927 0 0.958342 0.285622 0 0.851763 0.523927 0 0.687138 0.726527 0 0.687138 0.726527 0 0.999612 0.0278526 0 0.999612 0.0278526 0 0.475685 0.879616 0 0.475685 0.879616 0 0.97276 -0.231815 -0 0.97276 -0.231815 -0 0.231815 0.97276 0 0.231815 0.97276 0 0.879616 -0.475685 -0 0.879616 -0.475685 -0 -0.0278526 0.999612 0 -0.0278526 0.999612 0 0.726527 -0.687138 -0 0.726527 -0.687138 -0 -0.285622 0.958342 0 -0.285622 0.958342 0 0.523927 -0.851763 -0 0.523927 -0.851763 -0 -0.523927 0.851763 0 -0.523927 0.851763 0 0.285622 -0.958342 0 0.285622 -0.958342 0 -0.726527 0.687138 0 -0.726527 0.687138 0 0.0278526 -0.999612 0 0.0278526 -0.999612 0 -0.879616 0.475685 0 -0.879616 0.475685 0 -0.231815 -0.97276 0 -0.231815 -0.97276 0 -0.97276 0.231815 0 -0.97276 0.231815 0 -0.475685 -0.879616 0 -0.475685 -0.879616 0 -0.999612 -0.0278526 0 -0.999612 -0.0278526 0 -0.687138 -0.726527 0 -0.687138 -0.726527 0 -0.958342 -0.285622 0 -0.958342 -0.285622 0 -0.851763 -0.523927 0 -0.851763 -0.523927 0 -0.851763 -0.523927 -0 -0.958342 -0.285622 -0 -0.851763 -0.523927 -0 -0.958342 -0.285622 -0 -0.687138 -0.726527 -0 -0.687138 -0.726527 -0 -0.999612 -0.0278526 -0 -0.999612 -0.0278526 -0 -0.475685 -0.879616 -0 -0.475685 -0.879616 -0 -0.97276 0.231815 0 -0.97276 0.231815 0 -0.231815 -0.97276 -0 -0.231815 -0.97276 -0 -0.879616 0.475685 0 -0.879616 0.475685 0 0.0278526 -0.999612 -0 0.0278526 -0.999612 -0 -0.726527 0.687138 0 -0.726527 0.687138 0 0.285622 -0.958342 -0 0.285622 -0.958342 -0 -0.523927 0.851763 0 -0.523927 0.851763 0 0.523927 -0.851763 -0 0.523927 -0.851763 -0 -0.285622 0.958342 -0 -0.285622 0.958342 -0 0.726527 -0.687138 -0 0.726527 -0.687138 -0 -0.0278526 0.999612 -0 -0.0278526 0.999612 -0 0.879616 -0.475685 -0 0.879616 -0.475685 -0 0.231815 0.97276 -0 0.231815 0.97276 -0 0.97276 -0.231815 -0 0.97276 -0.231815 -0 0.475685 0.879616 -0 0.475685 0.879616 -0 0.999612 0.0278526 -0 0.999612 0.0278526 -0 0.687138 0.726527 -0 0.687138 0.726527 -0 0.958342 0.285622 -0 0.958342 0.285622 -0 0.851763 0.523927 -0 0.851763 0.523927 -0 </float_array>
     <technique_common>
      <accessor source="#ID70-array" count="96" stride="3">
       <param name="X" type="float"/>
       <param name="Y" type="float"/>
       <param name="Z" type="float"/>
      </accessor>
     </technique_common>
    </source>
    <vertices id="ID82-vertices">
     <input semantic="POSITION" source="#ID82"/>
     <input semantic="NORMAL" source="#ID83"/>
    </vertices>
    <triangles count="48" material="geometryElement71">
     <input semantic="VERTEX" offset="0" source="#ID82-vertices"/>
     <input semantic="NORMAL" offset="0" source="#ID83"/>
     <p>0 1 2 1 0 3 4 1 3 1 4 5 0 6 7 6 0 2 8 4 9 4 8 5 7 10 11 10 7 6 12 9 13 9 12 8 11 14 15 14 11 10 16 13 17 13 16 12 15 18 19 18 15 14 20 17 21 17 20 16 18 22 19 22 18 23 24 21 25 21 24 20 23 26 22 26 23 27 28 25 29 25 28 24 27 30 26 30 27 31 28 32 33 32 28 29 31 34 30 34 31 35 33 36 37 36 33 32 35 38 34 38 35 39 37 40 41 40 37 36 39 42 38 42 39 43 41 44 45 44 41 40 46 42 43 42 46 47 45 47 46 47 45 44 </p>
    </triangles>
    <triangles count="48" material="geometryElement72">
     <input semantic="VERTEX" offset="0" source="#ID82-vertices"/>
     <input semantic="NORMAL" offset="0" source="#ID83"/>
     <p>48 49 50 51 50 49 52 53 50 48 50 53 51 49 54 55 54 49 52 56 53 57 53 56 54 55 58 59 58 55 56 60 57 61 57 60 58 59 62 63 62 59 60 64 61 65 61 64 62 63 66 67 66 63 64 68 65 69 65 68 70 66 71 67 71 66 68 72 69 73 69 72 74 70 75 71 75 70 72 76 73 77 73 76 78 74 79 75 79 74 77 76 80 81 80 76 82 78 83 79 83 78 80 81 84 85 84 81 86 82 87 83 87 82 84 85 88 89 88 85 90 86 91 87 91 86 88 89 92 93 92 89 94 95 91 90 91 95 92 93 94 95 94 93 </p>
    </triangles>
   </mesh>
  </geometry>
  <geometry id="geometry73">
   <mesh>
    <source id="ID90">
     <float_array id="ID76-array" count="144">-1.27181 0.600484 0.722952 -1.27603 0.751926 0.722952 -1.28388 0.675927 0.722952 -1.24876 0.8233 0.722952 -1.24061 0.530738 0.722952 -1.20396 0.885188 0.722952 -1.19243 0.471442 0.722952 -1.14466 0.93337 0.722952 -1.13054 0.426636 0.722952 -1.07492 0.964563 0.722952 -1.05917 0.399375 0.722952 -0.999474 0.976641 0.722952 -0.98317 0.391516 0.722952 -0.923475 0.968782 0.722952 -0.907727 0.403595 0.722952 -0.8521 0.941521 0.722952 -0.837981 0.434788 0.722952 -0.790213 0.896716 0.722952 -0.778685 0.48297 0.722952 -0.742031 0.83742 0.722952 -0.733879 0.544857 0.722952 -0.710838 0.767674 0.722952 -0.706618 0.616232 0.722952 -0.698759 0.692231 0.722952 -0.698759 0.692231 0.722952 -0.706618 0.616232 0.722952 -0.710838 0.767674 0.722952 -0.733879 0.544857 0.722952 -0.742031 0.83742 0.722952 -0.778685 0.48297 0.722952 -0.790213 0.896716 0.722952 -0.837981 0.434788 0.722952 -0.8521 0.941521 0.722952 -0.907727 0.403595 0.722952 -0.923475 0.968782 0.722952 -0.98317 0.391516 0.722952 -0.999474 0.976641 0.722952 -1.05917 0.399375 0.722952 -1.07492 0.964563 0.722952 -1.13054 0.426636 0.722952 -1.14466 0.93337 0.722952 -1.19243 0.471442 0.722952 -1.20396 0.885188 0.722952 -1.24061 0.530738 0.722952 -1.24876 0.8233 0.722952 -1.27181 0.600484 0.722952 -1.27603 0.751926 0.722952 -1.28388 0.675927 0.722952 </float_array>
     <technique_common>
      <accessor source="#ID76-array" count="48" stride="3">
       <param name="X" type="float"/>
       <param name="Y" type="float"/>
       <param name="Z" type="float"/>
      </accessor>
     </technique_common>
    </source>
    <source id="ID91">
     <float_array id="ID78-array" count="144">0 -0 1 0 -0 1 0 -0 1 0 -0 1 0 -0 1 0 -0 1 0 -0 1 0 -0 1 0 -0 1 0 -0 1 0 -0 1 0 -0 1 0 -0 1 0 -0 1 0 -0 1 0 -0 1 0 -0 1 0 -0 1 0 -0 1 0 -0 1 0 -0 1 0 -0 1 0 -0 1 0 -0 1 -0 0 -1 -0 0 -1 -0 0 -1 -0 0 -1 -0 0 -1 -0 0 -1 -0 0 -1 -0 0 -1 -0 0 -1 -0 0 -1 -0 0 -1 -0 0 -1 -0 0 -1 -0 0 -1 -0 0 -1 -0 0 -1 -0 0 -1 -0 0 -1 -0 0 -1 -0 0 -1 -0 0 -1 -0 0 -1 -0 0 -1 -0 0 -1 </float_array>
     <technique_common>
      <accessor source="#ID78-array" count="48" stride="3">
       <param name="X" type="float"/>
       <param name="Y" type="float"/>
       <param name="Z" type="float"/>
      </accessor>
     </technique_common>
    </source>
    <vertices id="ID90-vertices">
     <input semantic="POSITION" source="#ID90"/>
     <input semantic="NORMAL" source="#ID91"/>
    </vertices>
    <triangles count="22" material="geometryElement79">
     <input semantic="VERTEX" offset="0" source="#ID90-vertices"/>
     <input semantic="NORMAL" offset="0" source="#ID91"/>
     <p>0 1 2 1 0 3 3 0 4 3 4 5 5 4 6 5 6 7 7 6 8 7 8 9 9 8 10 9 10 11 11 10 12 11 12 13 13 12 14 13 14 15 15 14 16 15 16 17 17 16 18 17 18 19 19 18 20 19 20 21 21 20 22 21 22 23 </p>
    </triangles>
    <triangles count="22" material="geometryElement80">
     <input semantic="VERTEX" offset="0" source="#ID90-vertices"/>
     <input semantic="NORMAL" offset="0" source="#ID91"/>
     <p>24 25 26 25 27 26 26 27 28 27 29 28 28 29 30 29 31 30 30 31 32 31 33 32 32 33 34 33 35 34 34 35 36 35 37 36 36 37 38 37 39 38 38 39 40 39 41 40 40 41 42 41 43 42 42 43 44 43 45 44 44 45 46 47 46 45 </p>
    </triangles>
   </mesh>
  </geometry>
  <geometry id="geometry81">
   <mesh>
    <source id="ID96">
     <float_array id="ID84-array" count="288">-0.742031 0.83742 0.590551 -0.710838 0.767674 0.722952 -0.710838 0.767674 0.590551 -0.742031 0.83742 0.722952 -0.790213 0.896716 0.590551 -0.790213 0.896716 0.722952 -0.698759 0.692231 0.722952 -0.698759 0.692231 0.590551 -0.8521 0.941521 0.722952 -0.8521 0.941521 0.590551 -0.706618 0.616232 0.722952 -0.706618 0.616232 0.590551 -0.923475 0.968782 0.722952 -0.923475 0.968782 0.590551 -0.733879 0.544857 0.722952 -0.733879 0.544857 0.590551 -0.999474 0.976641 0.722952 -0.999474 0.976641 0.590551 -0.778685 0.48297 0.722952 -0.778685 0.48297 0.590551 -1.07492 0.964563 0.722952 -1.07492 0.964563 0.590551 -0.837981 0.434788 0.590551 -0.837981 0.434788 0.722952 -1.14466 0.93337 0.722952 -1.14466 0.93337 0.590551 -0.907727 0.403595 0.590551 -0.907727 0.403595 0.722952 -1.20396 0.885188 0.722952 -1.20396 0.885188 0.590551 -0.98317 0.391516 0.590551 -0.98317 0.391516 0.722952 -1.24876 0.8233 0.590551 -1.24876 0.8233 0.722952 -1.05917 0.399375 0.590551 -1.05917 0.399375 0.722952 -1.27603 0.751926 0.590551 -1.27603 0.751926 0.722952 -1.13054 0.426636 0.590551 -1.13054 0.426636 0.722952 -1.28388 0.675927 0.590551 -1.28388 0.675927 0.722952 -1.19243 0.471442 0.590551 -1.19243 0.471442 0.722952 -1.27181 0.600484 0.590551 -1.27181 0.600484 0.722952 -1.24061 0.530738 0.722952 -1.24061 0.530738 0.590551 -0.742031 0.83742 0.722952 -0.742031 0.83742 0.590551 -0.710838 0.767674 0.722952 -0.710838 0.767674 0.590551 -0.790213 0.896716 0.722952 -0.790213 0.896716 0.590551 -0.698759 0.692231 0.722952 -0.698759 0.692231 0.590551 -0.8521 0.941521 0.722952 -0.8521 0.941521 0.590551 -0.706618 0.616232 0.722952 -0.706618 0.616232 0.590551 -0.923475 0.968782 0.722952 -0.923475 0.968782 0.590551 -0.733879 0.544857 0.722952 -0.733879 0.544857 0.590551 -0.999474 0.976641 0.722952 -0.999474 0.976641 0.590551 -0.778685 0.48297 0.722952 -0.778685 0.48297 0.590551 -1.07492 0.964563 0.722952 -1.07492 0.964563 0.590551 -0.837981 0.434788 0.722952 -0.837981 0.434788 0.590551 -1.14466 0.93337 0.722952 -1.14466 0.93337 0.590551 -0.907727 0.403595 0.722952 -0.907727 0.403595 0.590551 -1.20396 0.885188 0.722952 -1.20396 0.885188 0.590551 -0.98317 0.391516 0.722952 -0.98317 0.391516 0.590551 -1.24876 0.8233 0.590551 -1.24876 0.8233 0.722952 -1.05917 0.399375 0.722952 -1.05917 0.399375 0.590551 -1.27603 0.751926 0.590551 -1.27603 0.751926 0.722952 -1.13054 0.426636 0.722952 -1.13054 0.426636 0.590551 -1.28388 0.675927 0.590551 -1.28388 0.675927 0.722952 -1.19243 0.471442 0.722952 -1.19243 0.471442 0.590551 -1.27181 0.600484 0.590551 -1.27181 0.600484 0.722952 -1.24061 0.530738 0.590551 -1.24061 0.530738 0.722952 </float_array>
     <technique_common>
      <accessor source="#ID84-array" count="96" stride="3">
       <param name="X" type="float"/>
       <param name="Y" type="float"/>
       <param name="Z" type="float"/>
      </accessor>
     </technique_common>
    </source>
    <source id="ID97">
     <float_array id="ID86-array" count="288">0.851763 0.523927 0 0.958342 0.285622 0 0.958342 0.285622 0 0.851763 0.523927 0 0.687138 0.726527 -0 0.687138 0.726527 -0 0.999612 0.0278526 0 0.999612 0.0278526 0 0.475685 0.879616 -0 0.475685 0.879616 -0 0.97276 -0.231815 0 0.97276 -0.231815 0 0.231815 0.97276 0 0.231815 0.97276 0 0.879616 -0.475685 0 0.879616 -0.475685 0 -0.0278526 0.999612 0 -0.0278526 0.999612 0 0.726527 -0.687138 0 0.726527 -0.687138 0 -0.285622 0.958342 -0 -0.285622 0.958342 -0 0.523927 -0.851763 0 0.523927 -0.851763 0 -0.523927 0.851763 0 -0.523927 0.851763 0 0.285622 -0.958342 -0 0.285622 -0.958342 -0 -0.726527 0.687138 0 -0.726527 0.687138 0 0.0278526 -0.999612 -0 0.0278526 -0.999612 -0 -0.879616 0.475685 0 -0.879616 0.475685 0 -0.231815 -0.97276 -0 -0.231815 -0.97276 -0 -0.97276 0.231815 -0 -0.97276 0.231815 -0 -0.475685 -0.879616 -0 -0.475685 -0.879616 -0 -0.999612 -0.0278526 -0 -0.999612 -0.0278526 -0 -0.687138 -0.726527 0 -0.687138 -0.726527 0 -0.958342 -0.285622 -0 -0.958342 -0.285622 -0 -0.851763 -0.523927 0 -0.851763 -0.523927 0 -0.851763 -0.523927 -0 -0.851763 -0.523927 -0 -0.958342 -0.285622 -0 -0.958342 -0.285622 -0 -0.687138 -0.726527 0 -0.687138 -0.726527 0 -0.999612 -0.0278526 -0 -0.999612 -0.0278526 -0 -0.475685 -0.879616 0 -0.475685 -0.879616 0 -0.97276 0.231815 -0 -0.97276 0.231815 -0 -0.231815 -0.97276 -0 -0.231815 -0.97276 -0 -0.879616 0.475685 -0 -0.879616 0.475685 -0 0.0278526 -0.999612 -0 0.0278526 -0.999612 -0 -0.726527 0.687138 -0 -0.726527 0.687138 -0 0.285622 -0.958342 0 0.285622 -0.958342 0 -0.523927 0.851763 -0 -0.523927 0.851763 -0 0.523927 -0.851763 -0 0.523927 -0.851763 -0 -0.285622 0.958342 0 -0.285622 0.958342 0 0.726527 -0.687138 -0 0.726527 -0.687138 -0 -0.0278526 0.999612 0 -0.0278526 0.999612 0 0.879616 -0.475685 -0 0.879616 -0.475685 -0 0.231815 0.97276 0 0.231815 0.97276 0 0.97276 -0.231815 0 0.97276 -0.231815 0 0.475685 0.879616 0 0.475685 0.879616 0 0.999612 0.0278526 0 0.999612 0.0278526 0 0.687138 0.726527 -0 0.687138 0.726527 -0 0.958342 0.285622 0 0.958342 0.285622 0 0.851763 0.523927 -0 0.851763 0.523927 -0 </float_array>
     <technique_common>
      <accessor source="#ID86-array" count="96" stride="3">
       <param name="X" type="float"/>
       <param name="Y" type="float"/>
       <param name="Z" type="float"/>
      </accessor>
     </technique_common>
    </source>
    <vertices id="ID96-vertices">
     <input semantic="POSITION" source="#ID96"/>
     <input semantic="NORMAL" source="#ID97"/>
    </vertices>
    <triangles count="48" material="geometryElement87">
     <input semantic="VERTEX" offset="0" source="#ID96-vertices"/>
     <input semantic="NORMAL" offset="0" source="#ID97"/>
     <p>0 1 2 1 0 3 4 3 0 3 4 5 2 6 7 6 2 1 8 4 9 4 8 5 7 10 11 10 7 6 12 9 13 9 12 8 11 14 15 14 11 10 16 13 17 13 16 12 15 18 19 18 15 14 20 17 21 17 20 16 18 22 19 22 18 23 24 21 25 21 24 20 23 26 22 26 23 27 28 25 29 25 28 24 27 30 26 30 27 31 28 32 33 32 28 29 31 34 30 34 31 35 33 36 37 36 33 32 35 38 34 38 35 39 37 40 41 40 37 36 39 42 38 42 39 43 41 44 45 44 41 40 46 42 43 42 46 47 45 47 46 47 45 44 </p>
    </triangles>
    <triangles count="48" material="geometryElement88">
     <input semantic="VERTEX" offset="0" source="#ID96-vertices"/>
     <input semantic="NORMAL" offset="0" source="#ID97"/>
     <p>48 49 50 51 50 49 52 53 48 49 48 53 50 51 54 55 54 51 52 56 53 57 53 56 54 55 58 59 58 55 56 60 57 61 57 60 58 59 62 63 62 59 60 64 61 65 61 64 62 63 66 67 66 63 64 68 65 69 65 68 70 66 71 67 71 66 68 72 69 73 69 72 74 70 75 71 75 70 72 76 73 77 73 76 78 74 79 75 79 74 77 76 80 81 80 76 82 78 83 79 83 78 80 81 84 85 84 81 86 82 87 83 87 82 84 85 88 89 88 85 90 86 91 87 91 86 88 89 92 93 92 89 94 95 91 90 91 95 92 93 94 95 94 93 </p>
    </triangles>
   </mesh>
  </geometry>
  <geometry id="geometry89">
   <mesh>
    <source id="ID102">
     <float_array id="ID92-array" count="144">-0.329173 -1.08921 0.729921 -0.333393 -0.937773 0.729921 -0.341252 -1.01377 0.729921 -0.306132 -0.866398 0.729921 -0.29798 -1.15896 0.729921 -0.261326 -0.804511 0.729921 -0.249798 -1.21826 0.729921 -0.20203 -0.756329 0.729921 -0.187911 -1.26306 0.729921 -0.132284 -0.725136 0.729921 -0.116536 -1.29032 0.729921 -0.0568409 -0.713057 0.729921 -0.0405373 -1.29818 0.729921 0.0191577 -0.720916 0.729921 0.0349057 -1.2861 0.729921 0.0905326 -0.748177 0.729921 0.104652 -1.25491 0.729921 0.15242 -0.792982 0.729921 0.163948 -1.20673 0.729921 0.200602 -0.852278 0.729921 0.208753 -1.14484 0.729921 0.231795 -0.922025 0.729921 0.236015 -1.07347 0.729921 0.243874 -0.997468 0.729921 0.243874 -0.997468 0.729921 0.236015 -1.07347 0.729921 0.231795 -0.922025 0.729921 0.208753 -1.14484 0.729921 0.200602 -0.852278 0.729921 0.163948 -1.20673 0.729921 0.15242 -0.792982 0.729921 0.104652 -1.25491 0.729921 0.0905326 -0.748177 0.729921 0.0349057 -1.2861 0.729921 0.0191577 -0.720916 0.729921 -0.0405373 -1.29818 0.729921 -0.0568409 -0.713057 0.729921 -0.116536 -1.29032 0.729921 -0.132284 -0.725136 0.729921 -0.187911 -1.26306 0.729921 -0.20203 -0.756329 0.729921 -0.249798 -1.21826 0.729921 -0.261326 -0.804511 0.729921 -0.29798 -1.15896 0.729921 -0.306132 -0.866398 0.729921 -0.329173 -1.08921 0.729921 -0.333393 -0.937773 0.729921 -0.341252 -1.01377 0.729921 </float_array>
     <technique_common>
      <accessor source="#ID92-array" count="48" stride="3">
       <param name="X" type="float"/>
       <param name="Y" type="float"/>
       <param name="Z" type="float"/>
      </accessor>
     </technique_common>
    </source>
    <source id="ID103">
     <float_array id="ID93-array" count="144">-0 -0 1 -0 -0 1 -0 -0 1 -0 -0 1 -0 -0 1 -0 -0 1 -0 -0 1 -0 -0 1 -0 -0 1 -0 -0 1 -0 -0 1 -0 -0 1 -0 -0 1 -0 -0 1 -0 -0 1 -0 -0 1 -0 -0 1 -0 -0 1 -0 -0 1 -0 -0 1 -0 -0 1 -0 -0 1 -0 -0 1 -0 -0 1 0 0 -1 0 0 -1 0 0 -1 0 0 -1 0 0 -1 0 0 -1 0 0 -1 0 0 -1 0 0 -1 0 0 -1 0 0 -1 0 0 -1 0 0 -1 0 0 -1 0 0 -1 0 0 -1 0 0 -1 0 0 -1 0 0 -1 0 0 -1 0 0 -1 0 0 -1 0 0 -1 0 0 -1 </float_array>
     <technique_common>
      <accessor source="#ID93-array" count="48" stride="3">
       <param name="X" type="float"/>
       <param name="Y" type="float"/>
       <param name="Z" type="float"/>
      </accessor>
     </technique_common>
    </source>
    <vertices id="ID102-vertices">
     <input semantic="POSITION" source="#ID102"/>
     <input semantic="NORMAL" source="#ID103"/>
    </vertices>
    <triangles count="22" material="geometryElement94">
     <input semantic="VERTEX" offset="0" source="#ID102-vertices"/>
     <input semantic="NORMAL" offset="0" source="#ID103"/>
     <p>0 1 2 1 0 3 3 0 4 3 4 5 5 4 6 5 6 7 7 6 8 7 8 9 9 8 10 9 10 11 11 10 12 11 12 13 13 12 14 13 14 15 15 14 16 15 16 17 17 16 18 17 18 19 19 18 20 19 20 21 21 20 22 21 22 23 </p>
    </triangles>
    <triangles count="22" material="geometryElement95">
     <input semantic="VERTEX" offset="0" source="#ID102-vertices"/>
     <input semantic="NORMAL" offset="0" source="#ID103"/>
     <p>24 25 26 25 27 26 26 27 28 27 29 28 28 29 30 29 31 30 30 31 32 31 33 32 32 33 34 33 35 34 34 35 36 35 37 36 36 37 38 37 39 38 38 39 40 39 41 40 40 41 42 41 43 42 42 43 44 43 45 44 44 45 46 47 46 45 </p>
    </triangles>
   </mesh>
  </geometry>
  <geometry id="geometry96">
   <mesh>
    <source id="ID108">
     <float_array id="ID98-array" count="288">0.200602 -0.852278 0.590551 0.231795 -0.922025 0.729921 0.231795 -0.922025 0.590551 0.200602 -0.852278 0.729921 0.15242 -0.792982 0.590551 0.15242 -0.792982 0.729921 0.243874 -0.997468 0.729921 0.243874 -0.997468 0.590551 0.0905326 -0.748177 0.590551 0.0905326 -0.748177 0.729921 0.236015 -1.07347 0.729921 0.236015 -1.07347 0.590551 0.0191577 -0.720916 0.729921 0.0191577 -0.720916 0.590551 0.208753 -1.14484 0.729921 0.208753 -1.14484 0.590551 -0.0568409 -0.713057 0.729921 -0.0568409 -0.713057 0.590551 0.163948 -1.20673 0.729921 0.163948 -1.20673 0.590551 -0.132284 -0.725136 0.729921 -0.132284 -0.725136 0.590551 0.104652 -1.25491 0.590551 0.104652 -1.25491 0.729921 -0.20203 -0.756329 0.729921 -0.20203 -0.756329 0.590551 0.0349057 -1.2861 0.590551 0.0349057 -1.2861 0.729921 -0.261326 -0.804511 0.729921 -0.261326 -0.804511 0.590551 -0.0405373 -1.29818 0.590551 -0.0405373 -1.29818 0.729921 -0.306132 -0.866398 0.590551 -0.306132 -0.866398 0.729921 -0.116536 -1.29032 0.590551 -0.116536 -1.29032 0.729921 -0.333393 -0.937773 0.590551 -0.333393 -0.937773 0.729921 -0.187911 -1.26306 0.729921 -0.187911 -1.26306 0.590551 -0.341252 -1.01377 0.590551 -0.341252 -1.01377 0.729921 -0.249798 -1.21826 0.590551 -0.249798 -1.21826 0.729921 -0.329173 -1.08921 0.590551 -0.329173 -1.08921 0.729921 -0.29798 -1.15896 0.590551 -0.29798 -1.15896 0.729921 0.200602 -0.852278 0.729921 0.200602 -0.852278 0.590551 0.231795 -0.922025 0.729921 0.231795 -0.922025 0.590551 0.15242 -0.792982 0.729921 0.15242 -0.792982 0.590551 0.243874 -0.997468 0.729921 0.243874 -0.997468 0.590551 0.0905326 -0.748177 0.729921 0.0905326 -0.748177 0.590551 0.236015 -1.07347 0.729921 0.236015 -1.07347 0.590551 0.0191577 -0.720916 0.729921 0.0191577 -0.720916 0.590551 0.208753 -1.14484 0.729921 0.208753 -1.14484 0.590551 -0.0568409 -0.713057 0.729921 -0.0568409 -0.713057 0.590551 0.163948 -1.20673 0.729921 0.163948 -1.20673 0.590551 -0.132284 -0.725136 0.729921 -0.132284 -0.725136 0.590551 0.104652 -1.25491 0.729921 0.104652 -1.25491 0.590551 -0.20203 -0.756329 0.729921 -0.20203 -0.756329 0.590551 0.0349057 -1.2861 0.729921 0.0349057 -1.2861 0.590551 -0.261326 -0.804511 0.729921 -0.261326 -0.804511 0.590551 -0.0405373 -1.29818 0.729921 -0.0405373 -1.29818 0.590551 -0.306132 -0.866398 0.590551 -0.306132 -0.866398 0.729921 -0.116536 -1.29032 0.729921 -0.116536 -1.29032 0.590551 -0.333393 -0.937773 0.590551 -0.333393 -0.937773 0.729921 -0.187911 -1.26306 0.729921 -0.187911 -1.26306 0.590551 -0.341252 -1.01377 0.590551 -0.341252 -1.01377 0.729921 -0.249798 -1.21826 0.729921 -0.249798 -1.21826 0.590551 -0.329173 -1.08921 0.590551 -0.329173 -1.08921 0.729921 -0.29798 -1.15896 0.729921 -0.29798 -1.15896 0.590551 </float_array>
     <technique_common>
      <accessor source="#ID98-array" count="96" stride="3">
       <param name="X" type="float"/>
       <param name="Y" type="float"/>
       <param name="Z" type="float"/>
      </accessor>
     </technique_common>
    </source>
    <source id="ID109">
     <float_array id="ID99-array" count="288">0.851763 0.523927 -0 0.958342 0.285622 0 0.958342 0.285622 0 0.851763 0.523927 -0 0.687138 0.726527 -0 0.687138 0.726527 -0 0.999612 0.0278526 0 0.999612 0.0278526 0 0.475685 0.879616 -0 0.475685 0.879616 -0 0.97276 -0.231815 -0 0.97276 -0.231815 -0 0.231815 0.97276 -0 0.231815 0.97276 -0 0.879616 -0.475685 -0 0.879616 -0.475685 -0 -0.0278526 0.999612 0 -0.0278526 0.999612 0 0.726527 -0.687138 -0 0.726527 -0.687138 -0 -0.285622 0.958342 0 -0.285622 0.958342 0 0.523927 -0.851763 -0 0.523927 -0.851763 -0 -0.523927 0.851763 0 -0.523927 0.851763 0 0.285622 -0.958342 -0 0.285622 -0.958342 -0 -0.726527 0.687138 0 -0.726527 0.687138 0 0.0278526 -0.999612 0 0.0278526 -0.999612 0 -0.879616 0.475685 0 -0.879616 0.475685 0 -0.231815 -0.97276 0 -0.231815 -0.97276 0 -0.97276 0.231815 0 -0.97276 0.231815 0 -0.475685 -0.879616 0 -0.475685 -0.879616 0 -0.999612 -0.0278526 0 -0.999612 -0.0278526 0 -0.687138 -0.726527 0 -0.687138 -0.726527 0 -0.958342 -0.285622 0 -0.958342 -0.285622 0 -0.851763 -0.523927 0 -0.851763 -0.523927 0 -0.851763 -0.523927 0 -0.851763 -0.523927 0 -0.958342 -0.285622 -0 -0.958342 -0.285622 -0 -0.687138 -0.726527 0 -0.687138 -0.726527 0 -0.999612 -0.0278526 -0 -0.999612 -0.0278526 -0 -0.475685 -0.879616 0 -0.475685 -0.879616 0 -0.97276 0.231815 0 -0.97276 0.231815 0 -0.231815 -0.97276 0 -0.231815 -0.97276 0 -0.879616 0.475685 0 -0.879616 0.475685 0 0.0278526 -0.999612 -0 0.0278526 -0.999612 -0 -0.726527 0.687138 0 -0.726527 0.687138 0 0.285622 -0.958342 -0 0.285622 -0.958342 -0 -0.523927 0.851763 0 -0.523927 0.851763 0 0.523927 -0.851763 -0 0.523927 -0.851763 -0 -0.285622 0.958342 0 -0.285622 0.958342 0 0.726527 -0.687138 -0 0.726527 -0.687138 -0 -0.0278526 0.999612 -0 -0.0278526 0.999612 -0 0.879616 -0.475685 -0 0.879616 -0.475685 -0 0.231815 0.97276 -0 0.231815 0.97276 -0 0.97276 -0.231815 -0 0.97276 -0.231815 -0 0.475685 0.879616 -0 0.475685 0.879616 -0 0.999612 0.0278526 -0 0.999612 0.0278526 -0 0.687138 0.726527 -0 0.687138 0.726527 -0 0.958342 0.285622 -0 0.958342 0.285622 -0 0.851763 0.523927 -0 0.851763 0.523927 -0 </float_array>
     <technique_common>
      <accessor source="#ID99-array" count="96" stride="3">
       <param name="X" type="float"/>
       <param name="Y" type="float"/>
       <param name="Z" type="float"/>
      </accessor>
     </technique_common>
    </source>
    <vertices id="ID108-vertices">
     <input semantic="POSITION" source="#ID108"/>
     <input semantic="NORMAL" source="#ID109"/>
    </vertices>
    <triangles count="48" material="geometryElement100">
     <input semantic="VERTEX" offset="0" source="#ID108-vertices"/>
     <input semantic="NORMAL" offset="0" source="#ID109"/>
     <p>0 1 2 1 0 3 4 3 0 3 4 5 2 6 7 6 2 1 8 5 4 5 8 9 7 10 11 10 7 6 12 8 13 8 12 9 11 14 15 14 11 10 16 13 17 13 16 12 15 18 19 18 15 14 20 17 21 17 20 16 18 22 19 22 18 23 24 21 25 21 24 20 23 26 22 26 23 27 28 25 29 25 28 24 27 30 26 30 27 31 28 32 33 32 28 29 31 34 30 34 31 35 33 36 37 36 33 32 34 38 39 38 34 35 37 40 41 40 37 36 38 42 39 42 38 43 41 44 45 44 41 40 43 46 42 46 43 47 45 46 47 46 45 44 </p>
    </triangles>
    <triangles count="48" material="geometryElement101">
     <input semantic="VERTEX" offset="0" source="#ID108-vertices"/>
     <input semantic="NORMAL" offset="0" source="#ID109"/>
     <p>48 49 50 51 50 49 52 53 48 49 48 53 50 51 54 55 54 51 56 57 52 53 52 57 54 55 58 59 58 55 56 60 57 61 57 60 58 59 62 63 62 59 60 64 61 65 61 64 62 63 66 67 66 63 64 68 65 69 65 68 70 66 71 67 71 66 68 72 69 73 69 72 74 70 75 71 75 70 72 76 73 77 73 76 78 74 79 75 79 74 77 76 80 81 80 76 82 78 83 79 83 78 80 81 84 85 84 81 82 83 86 87 86 83 84 85 88 89 88 85 90 86 91 87 91 86 88 89 92 93 92 89 94 90 95 91 95 90 92 93 95 94 95 93 </p>
    </triangles>
   </mesh>
  </geometry>
 </library_geometries>
 <library_visual_scenes>
  <visual_scene id="scene102">
   <node id="SketchUp" name="SketchUp">
    <node id="node103" name="ID3">
     <instance_geometry url="#geometry1">
      <bind_material>
       <technique_common>
        <instance_material symbol="geometryElement4" target="#ID4"/>
       </technique_common>
      </bind_material>
     </instance_geometry>
    </node>
    <node id="ID11" name="ID11">
     <instance_geometry url="#geometry5">
      <bind_material>
       <technique_common>
        <instance_material symbol="geometryElement10" target="#ID4"/>
       </technique_common>
      </bind_material>
     </instance_geometry>
    </node>
    <node id="ID17" name="ID17">
     <instance_geometry url="#geometry11">
      <bind_material>
       <technique_common>
        <instance_material symbol="geometryElement16" target="#ID18"/>
       </technique_common>
      </bind_material>
     </instance_geometry>
    </node>
    <node id="node104" name="ID25">
     <instance_geometry url="#geometry17">
      <bind_material>
       <technique_common>
        <instance_material symbol="geometryElement23" target="#ID26"/>
       </technique_common>
      </bind_material>
     </instance_geometry>
    </node>
    <node id="ID33" name="ID33">
     <instance_geometry url="#geometry24">
      <bind_material>
       <technique_common>
        <instance_material symbol="geometryElement28" target="#ID18"/>
       </technique_common>
      </bind_material>
     </instance_geometry>
    </node>
    <node id="ID39" name="ID39">
     <instance_geometry url="#geometry29">
      <bind_material>
       <technique_common>
        <instance_material symbol="geometryElement32" target="#ID26"/>
       </technique_common>
      </bind_material>
     </instance_geometry>
    </node>
    <node id="ID45" name="ID45">
     <instance_geometry url="#geometry33">
      <bind_material>
       <technique_common>
        <instance_material symbol="geometryElement38" target="#ID18"/>
       </technique_common>
      </bind_material>
     </instance_geometry>
    </node>
    <node id="ID51" name="ID51">
     <instance_geometry url="#geometry39">
      <bind_material>
       <technique_common>
        <instance_material symbol="geometryElement44" target="#ID26"/>
       </technique_common>
      </bind_material>
     </instance_geometry>
    </node>
    <node id="ID57" name="ID57">
     <instance_geometry url="#geometry45">
      <bind_material>
       <technique_common>
        <instance_material symbol="geometryElement50" target="#ID4"/>
        <instance_material symbol="geometryElement51" target="#ID61"/>
       </technique_common>
      </bind_material>
     </instance_geometry>
    </node>
    <node id="ID65" name="ID65">
     <instance_geometry url="#geometry52">
      <bind_material>
       <technique_common>
        <instance_material symbol="geometryElement56" target="#ID4"/>
        <instance_material symbol="geometryElement57" target="#ID69"/>
       </technique_common>
      </bind_material>
     </instance_geometry>
    </node>
    <node id="ID73" name="ID73">
     <instance_geometry url="#geometry58">
      <bind_material>
       <technique_common>
        <instance_material symbol="geometryElement63" target="#ID4"/>
        <instance_material symbol="geometryElement64" target="#ID77"/>
       </technique_common>
      </bind_material>
     </instance_geometry>
    </node>
    <node id="ID81" name="ID81">
     <instance_geometry url="#geometry65">
      <bind_material>
       <technique_common>
        <instance_material symbol="geometryElement71" target="#ID4"/>
        <instance_material symbol="geometryElement72" target="#ID85"/>
       </technique_common>
      </bind_material>
     </instance_geometry>
    </node>
    <node id="ID89" name="ID89">
     <instance_geometry url="#geometry73">
      <bind_material>
       <technique_common>
        <instance_material symbol="geometryElement79" target="#ID4"/>
        <instance_material symbol="geometryElement80" target="#ID77"/>
       </technique_common>
      </bind_material>
     </instance_geometry>
    </node>
    <node id="ID95" name="ID95">
     <instance_geometry url="#geometry81">
      <bind_material>
       <technique_common>
        <instance_material symbol="geometryElement87" target="#ID4"/>
        <instance_material symbol="geometryElement88" target="#ID85"/>
       </technique_common>
      </bind_material>
     </instance_geometry>
    </node>
    <node id="ID101" name="ID101">
     <instance_geometry url="#geometry89">
      <bind_material>
       <technique_common>
        <instance_material symbol="geometryElement94" target="#ID4"/>
        <instance_material symbol="geometryElement95" target="#ID77"/>
       </technique_common>
      </bind_material>
     </instance_geometry>
    </node>
    <node id="ID107" name="ID107">
     <instance_geometry url="#geometry96">
      <bind_material>
       <technique_common>
        <instance_material symbol="geometryElement100" target="#ID4"/>
        <instance_material symbol="geometryElement101" target="#ID111"/>
       </technique_common>
      </bind_material>
     </instance_geometry>
    </node>
   </node>
  </visual_scene>
 </library_visual_scenes>
 <scene>
  <instance_visual_scene url="#scene102"/>
 </scene>
</COLLADA>
